{
  "project_info": {
    "project_number": "458555293429",
    "project_id": "book-flow-29b7b",
    "storage_bucket": "book-flow-29b7b.appspot.com"
  },
  "client": [
    {
      "client_info": {
        "mobilesdk_app_id": "1:458555293429:android:555a77deef769b9f308fbc",
        "android_client_info": {
          "package_name": "com.bit.bookflow"
        }
      },
      "oauth_client": [
        {
          "client_id": "458555293429-h0llls2k8u5btruvmeklfker1tu5qmvv.apps.googleusercontent.com",
          "client_type": 3
        }
      ],
      "api_key": [
        {
          "current_key": "AIzaSyDhgnbjNVHioZ_r4kV4ATmarjruV9UnCh0"
        }
      ],
      "services": {
        "appinvite_service": {
          "other_platform_oauth_client": [
            {
              "client_id": "458555293429-h0llls2k8u5btruvmeklfker1tu5qmvv.apps.googleusercontent.com",
              "client_type": 3
            }
          ]
        }
      }
    }
  ],
  "configuration_version": "1"
}